…
    ## See spec(...) for full column specifications.

``` r
select(nyct_data, Division, Line)
```

    ## # A tibble: 1,868 x 2
    ##    Division Line    
    ##    <chr>    <chr>   
    ##  1 BMT      4 Avenue
    ##  2 BMT      4 Avenue
    ##  3 BMT      4 Avenue
    ##  4 BMT      4 Avenue
    ##  5 BMT      4 Avenue
    ##  6 BMT      4 Avenue
    ##  7 BMT      4 Avenue
    ##  8 BMT      4 Avenue
    ##  9 BMT      4 Avenue
    ## 10 BMT      4 Avenue
    ## # … with 1,858 more rows
…
